{
    "page": 1,
    "per_page": 160,
    "photos": [
        {
            "id": 2832432,
            "width": 3000,
            "height": 4000,
            "url": "https://www.pexels.com/photo/photo-of-acrylic-paint-2832432/",
            "photographer": "Anni Roenkae",
            "photographer_url": "https://www.pexels.com/@anniroenkae",
            "photographer_id": 989471,
            "avg_color": "#9C6B7D",
            "src": {
                "original": "https://images.pexels.com/photos/2832432/pexels-photo-2832432.png",
                "large2x": "https://images.pexels.com/photos/2832432/pexels-photo-2832432.png?auto=compress&cs=tinysrgb&dpr=2&h=650&w=940",
                "large": "https://images.pexels.com/photos/2832432/pexels-photo-2832432.png?auto=compress&cs=tinysrgb&h=650&w=940",
                "medium": "https://images.pexels.com/photos/2832432/pexels-photo-2832432.png?auto=compress&cs=tinysrgb&h=350",
                "small": "https://images.pexels.com/photos/2832432/pexels-photo-2832432.png?auto=compress&cs=tinysrgb&h=130",
                "portrait": "https://images.pexels.com/photos/2832432/pexels-photo-2832432.png?auto=compress&cs=tinysrgb&fit=crop&h=1200&w=800",
                "landscape": "https://images.pexels.com/photos/2832432/pexels-photo-2832432.png?auto=compress&cs=tinysrgb&fit=crop&h=627&w=1200",
                "tiny": "https://images.pexels.com/photos/2832432/pexels-photo-2832432.png?auto=compress&cs=tinysrgb&dpr=1&fit=crop&h=200&w=280"
            },
            "liked": false,
            "alt": "Photo Of Acrylic Paint"
        },
        {
            "id": 1616403,
            "width": 4896,
            "height": 3264,
            "url": "https://www.pexels.com/photo/pink-and-purple-wallpaper-1616403/",
            "photographer": "Zaksheuskaya",
            "photographer_url": "https://www.pexels.com/@zaksheuskaya-709412",
            "photographer_id": 709412,
            "avg_color": "#821287",
            "src": {
                "original": "https://images.pexels.com/photos/1616403/pexels-photo-1616403.jpeg",
                "large2x": "https://images.pexels.com/photos/1616403/pexels-photo-1616403.jpeg?auto=compress&cs=tinysrgb&dpr=2&h=650&w=940",
                "large": "https://images.pexels.com/photos/1616403/pexels-photo-1616403.jpeg?auto=compress&cs=tinysrgb&h=650&w=940",
                "medium": "https://images.pexels.com/photos/1616403/pexels-photo-1616403.jpeg?auto=compress&cs=tinysrgb&h=350",
                "small": "https://images.pexels.com/photos/1616403/pexels-photo-1616403.jpeg?auto=compress&cs=tinysrgb&h=130",
                "portrait": "https://images.pexels.com/photos/1616403/pexels-photo-1616403.jpeg?auto=compress&cs=tinysrgb&fit=crop&h=1200&w=800",
                "landscape": "https://images.pexels.com/photos/1616403/pexels-photo-1616403.jpeg?auto=compress&cs=tinysrgb&fit=crop&h=627&w=1200",
                "tiny": "https://images.pexels.com/photos/1616403/pexels-photo-1616403.jpeg?auto=compress&cs=tinysrgb&dpr=1&fit=crop&h=200&w=280"
            },
            "liked": false,
            "alt": "Pink and Purple Wallpaper"
        },
        {
            "id": 3109808,
            "width": 5184,
            "height": 3888,
            "url": "https://www.pexels.com/photo/purple-and-blue-liquid-abstract-illustration-3109808/",
            "photographer": "Anni Roenkae",
            "photographer_url": "https://www.pexels.com/@anniroenkae",
            "photographer_id": 989471,
            "avg_color": "#47328B",
            "src": {
                "original": "https://images.pexels.com/photos/3109808/pexels-photo-3109808.jpeg",
                "large2x": "https://images.pexels.com/photos/3109808/pexels-photo-3109808.jpeg?auto=compress&cs=tinysrgb&dpr=2&h=650&w=940",
                "large": "https://images.pexels.com/photos/3109808/pexels-photo-3109808.jpeg?auto=compress&cs=tinysrgb&h=650&w=940",
                "medium": "https://images.pexels.com/photos/3109808/pexels-photo-3109808.jpeg?auto=compress&cs=tinysrgb&h=350",
                "small": "https://images.pexels.com/photos/3109808/pexels-photo-3109808.jpeg?auto=compress&cs=tinysrgb&h=130",
                "portrait": "https://images.pexels.com/photos/3109808/pexels-photo-3109808.jpeg?auto=compress&cs=tinysrgb&fit=crop&h=1200&w=800",
                "landscape": "https://images.pexels.com/photos/3109808/pexels-photo-3109808.jpeg?auto=compress&cs=tinysrgb&fit=crop&h=627&w=1200",
                "tiny": "https://images.pexels.com/photos/3109808/pexels-photo-3109808.jpeg?auto=compress&cs=tinysrgb&dpr=1&fit=crop&h=200&w=280"
            },
            "liked": false,
            "alt": "Purple and Blue Liquid Abstract Illustration"
        },
        {
            "id": 3705645,
            "width": 3024,
            "height": 4032,
            "url": "https://www.pexels.com/photo/black-abstract-painting-3705645/",
            "photographer": "Dids",
            "photographer_url": "https://www.pexels.com/@didsss",
            "photographer_id": 447505,
            "avg_color": "#404141",
            "src": {
                "original": "https://images.pexels.com/photos/3705645/pexels-photo-3705645.jpeg",
                "large2x": "https://images.pexels.com/photos/3705645/pexels-photo-3705645.jpeg?auto=compress&cs=tinysrgb&dpr=2&h=650&w=940",
                "large": "https://images.pexels.com/photos/3705645/pexels-photo-3705645.jpeg?auto=compress&cs=tinysrgb&h=650&w=940",
                "medium": "https://images.pexels.com/photos/3705645/pexels-photo-3705645.jpeg?auto=compress&cs=tinysrgb&h=350",
                "small": "https://images.pexels.com/photos/3705645/pexels-photo-3705645.jpeg?auto=compress&cs=tinysrgb&h=130",
                "portrait": "https://images.pexels.com/photos/3705645/pexels-photo-3705645.jpeg?auto=compress&cs=tinysrgb&fit=crop&h=1200&w=800",
                "landscape": "https://images.pexels.com/photos/3705645/pexels-photo-3705645.jpeg?auto=compress&cs=tinysrgb&fit=crop&h=627&w=1200",
                "tiny": "https://images.pexels.com/photos/3705645/pexels-photo-3705645.jpeg?auto=compress&cs=tinysrgb&dpr=1&fit=crop&h=200&w=280"
            },
            "liked": false,
            "alt": "Black Abstract Painting"
        },
        {
            "id": 3063362,
            "width": 3024,
            "height": 4032,
            "url": "https://www.pexels.com/photo/abstract-painting-3063362/",
            "photographer": "Jung-Hua Liu",
            "photographer_url": "https://www.pexels.com/@jung-hua-liu-1479622",
            "photographer_id": 1479622,
            "avg_color": "#619DA6",
            "src": {
                "original": "https://images.pexels.com/photos/3063362/pexels-photo-3063362.jpeg",
                "large2x": "https://images.pexels.com/photos/3063362/pexels-photo-3063362.jpeg?auto=compress&cs=tinysrgb&dpr=2&h=650&w=940",
                "large": "https://images.pexels.com/photos/3063362/pexels-photo-3063362.jpeg?auto=compress&cs=tinysrgb&h=650&w=940",
                "medium": "https://images.pexels.com/photos/3063362/pexels-photo-3063362.jpeg?auto=compress&cs=tinysrgb&h=350",
                "small": "https://images.pexels.com/photos/3063362/pexels-photo-3063362.jpeg?auto=compress&cs=tinysrgb&h=130",
                "portrait": "https://images.pexels.com/photos/3063362/pexels-photo-3063362.jpeg?auto=compress&cs=tinysrgb&fit=crop&h=1200&w=800",
                "landscape": "https://images.pexels.com/photos/3063362/pexels-photo-3063362.jpeg?auto=compress&cs=tinysrgb&fit=crop&h=627&w=1200",
                "tiny": "https://images.pexels.com/photos/3063362/pexels-photo-3063362.jpeg?auto=compress&cs=tinysrgb&dpr=1&fit=crop&h=200&w=280"
            },
            "liked": false,
            "alt": "Abstract Painting"
        },
        {
            "id": 3029479,
            "width": 3024,
            "height": 4032,
            "url": "https://www.pexels.com/photo/photo-of-abstract-painting-3029479/",
            "photographer": "Dids",
            "photographer_url": "https://www.pexels.com/@didsss",
            "photographer_id": 447505,
            "avg_color": "#7D7172",
            "src": {
                "original": "https://images.pexels.com/photos/3029479/pexels-photo-3029479.jpeg",
                "large2x": "https://images.pexels.com/photos/3029479/pexels-photo-3029479.jpeg?auto=compress&cs=tinysrgb&dpr=2&h=650&w=940",
                "large": "https://images.pexels.com/photos/3029479/pexels-photo-3029479.jpeg?auto=compress&cs=tinysrgb&h=650&w=940",
                "medium": "https://images.pexels.com/photos/3029479/pexels-photo-3029479.jpeg?auto=compress&cs=tinysrgb&h=350",
                "small": "https://images.pexels.com/photos/3029479/pexels-photo-3029479.jpeg?auto=compress&cs=tinysrgb&h=130",
                "portrait": "https://images.pexels.com/photos/3029479/pexels-photo-3029479.jpeg?auto=compress&cs=tinysrgb&fit=crop&h=1200&w=800",
                "landscape": "https://images.pexels.com/photos/3029479/pexels-photo-3029479.jpeg?auto=compress&cs=tinysrgb&fit=crop&h=627&w=1200",
                "tiny": "https://images.pexels.com/photos/3029479/pexels-photo-3029479.jpeg?auto=compress&cs=tinysrgb&dpr=1&fit=crop&h=200&w=280"
            },
            "liked": false,
            "alt": "Photo of Abstract Painting"
        },
        {
            "id": 217120,
            "width": 4794,
            "height": 3196,
            "url": "https://www.pexels.com/photo/body-of-water-near-orange-and-green-leaf-trees-217120/",
            "photographer": "PUSCAU DANIEL FLORIN",
            "photographer_url": "https://www.pexels.com/@puscau-daniel-florin-60408",
            "photographer_id": 60408,
            "avg_color": "#42362C",
            "src": {
                "original": "https://images.pexels.com/photos/217120/pexels-photo-217120.jpeg",
                "large2x": "https://images.pexels.com/photos/217120/pexels-photo-217120.jpeg?auto=compress&cs=tinysrgb&dpr=2&h=650&w=940",
                "large": "https://images.pexels.com/photos/217120/pexels-photo-217120.jpeg?auto=compress&cs=tinysrgb&h=650&w=940",
                "medium": "https://images.pexels.com/photos/217120/pexels-photo-217120.jpeg?auto=compress&cs=tinysrgb&h=350",
                "small": "https://images.pexels.com/photos/217120/pexels-photo-217120.jpeg?auto=compress&cs=tinysrgb&h=130",
                "portrait": "https://images.pexels.com/photos/217120/pexels-photo-217120.jpeg?auto=compress&cs=tinysrgb&fit=crop&h=1200&w=800",
                "landscape": "https://images.pexels.com/photos/217120/pexels-photo-217120.jpeg?auto=compress&cs=tinysrgb&fit=crop&h=627&w=1200",
                "tiny": "https://images.pexels.com/photos/217120/pexels-photo-217120.jpeg?auto=compress&cs=tinysrgb&dpr=1&fit=crop&h=200&w=280"
            },
            "liked": false,
            "alt": "Body of Water Near Orange and Green Leaf Trees"
        },
        {
            "id": 223022,
            "width": 5760,
            "height": 3840,
            "url": "https://www.pexels.com/photo/clear-body-of-water-between-yellow-and-green-leaved-trees-223022/",
            "photographer": "Inge Wallumrød",
            "photographer_url": "https://www.pexels.com/@ingewallu",
            "photographer_id": 32456,
            "avg_color": "#6F684F",
            "src": {
                "original": "https://images.pexels.com/photos/223022/pexels-photo-223022.jpeg",
                "large2x": "https://images.pexels.com/photos/223022/pexels-photo-223022.jpeg?auto=compress&cs=tinysrgb&dpr=2&h=650&w=940",
                "large": "https://images.pexels.com/photos/223022/pexels-photo-223022.jpeg?auto=compress&cs=tinysrgb&h=650&w=940",
                "medium": "https://images.pexels.com/photos/223022/pexels-photo-223022.jpeg?auto=compress&cs=tinysrgb&h=350",
                "small": "https://images.pexels.com/photos/223022/pexels-photo-223022.jpeg?auto=compress&cs=tinysrgb&h=130",
                "portrait": "https://images.pexels.com/photos/223022/pexels-photo-223022.jpeg?auto=compress&cs=tinysrgb&fit=crop&h=1200&w=800",
                "landscape": "https://images.pexels.com/photos/223022/pexels-photo-223022.jpeg?auto=compress&cs=tinysrgb&fit=crop&h=627&w=1200",
                "tiny": "https://images.pexels.com/photos/223022/pexels-photo-223022.jpeg?auto=compress&cs=tinysrgb&dpr=1&fit=crop&h=200&w=280"
            },
            "liked": false,
            "alt": "Clear Body of Water Between Yellow and Green Leaved Trees"
        },
        {
            "id": 1547813,
            "width": 3795,
            "height": 5693,
            "url": "https://www.pexels.com/photo/red-trees-1547813/",
            "photographer": "Artem Saranin",
            "photographer_url": "https://www.pexels.com/@arts",
            "photographer_id": 359504,
            "avg_color": "#4B3536",
            "src": {
                "original": "https://images.pexels.com/photos/1547813/pexels-photo-1547813.jpeg",
                "large2x": "https://images.pexels.com/photos/1547813/pexels-photo-1547813.jpeg?auto=compress&cs=tinysrgb&dpr=2&h=650&w=940",
                "large": "https://images.pexels.com/photos/1547813/pexels-photo-1547813.jpeg?auto=compress&cs=tinysrgb&h=650&w=940",
                "medium": "https://images.pexels.com/photos/1547813/pexels-photo-1547813.jpeg?auto=compress&cs=tinysrgb&h=350",
                "small": "https://images.pexels.com/photos/1547813/pexels-photo-1547813.jpeg?auto=compress&cs=tinysrgb&h=130",
                "portrait": "https://images.pexels.com/photos/1547813/pexels-photo-1547813.jpeg?auto=compress&cs=tinysrgb&fit=crop&h=1200&w=800",
                "landscape": "https://images.pexels.com/photos/1547813/pexels-photo-1547813.jpeg?auto=compress&cs=tinysrgb&fit=crop&h=627&w=1200",
                "tiny": "https://images.pexels.com/photos/1547813/pexels-photo-1547813.jpeg?auto=compress&cs=tinysrgb&dpr=1&fit=crop&h=200&w=280"
            },
            "liked": false,
            "alt": "Red Trees"
        },
        {
            "id": 589808,
            "width": 3139,
            "height": 4302,
            "url": "https://www.pexels.com/photo/autumn-hd-wallpaper-589808/",
            "photographer": "Valiphotos",
            "photographer_url": "https://www.pexels.com/@valis",
            "photographer_id": 186259,
            "avg_color": "#825F45",
            "src": {
                "original": "https://images.pexels.com/photos/589808/pexels-photo-589808.jpeg",
                "large2x": "https://images.pexels.com/photos/589808/pexels-photo-589808.jpeg?auto=compress&cs=tinysrgb&dpr=2&h=650&w=940",
                "large": "https://images.pexels.com/photos/589808/pexels-photo-589808.jpeg?auto=compress&cs=tinysrgb&h=650&w=940",
                "medium": "https://images.pexels.com/photos/589808/pexels-photo-589808.jpeg?auto=compress&cs=tinysrgb&h=350",
                "small": "https://images.pexels.com/photos/589808/pexels-photo-589808.jpeg?auto=compress&cs=tinysrgb&h=130",
                "portrait": "https://images.pexels.com/photos/589808/pexels-photo-589808.jpeg?auto=compress&cs=tinysrgb&fit=crop&h=1200&w=800",
                "landscape": "https://images.pexels.com/photos/589808/pexels-photo-589808.jpeg?auto=compress&cs=tinysrgb&fit=crop&h=627&w=1200",
                "tiny": "https://images.pexels.com/photos/589808/pexels-photo-589808.jpeg?auto=compress&cs=tinysrgb&dpr=1&fit=crop&h=200&w=280"
            },
            "liked": false,
            "alt": "Autumn Hd Wallpaper"
        }
    ],
    "total_results": 2182,
    "next_page": "https://api.pexels.com/v1/search/?page=2&per_page=10&query=fluid"
}